{
  "$schema": "https://docs.renovatebot.com/renovate-schema.json",
  "extends": [
    "config:base",
    ":semanticCommitTypeAll(chore)",
    "schedule:weekends"
  ],
  "labels": ["renovate"],
  "pip_requirements": {
    "fileMatch": [
      "(^|/)([\\w-]*)requirements-(dev|dev-pylint|test)\\.(txt|pip)$"
    ]
  },
  "docker-compose": {
    "fileMatch": ["^compose/(fluent-bit|otel-collector|traefik)\\.yml$"]
  },
  "packageRules": [
    {
      "matchFiles": ["web/requirements.txt", "web/requirements-otel.txt"],
      "groupName": "python-prod"
    },
    {
      "matchPaths": ["web/requirements-dev*.txt", "web/requirements-test.txt"],
      "groupName": "python-dev"
    },
    {
      "matchManagers": ["npm"],
      "matchUpdateTypes": ["minor", "patch"],
      "groupName": "npm"
    },
    {
      "matchManagers": ["gitlabci-include"],
      "enabled": false
    }
  ]
}
